<svg width="16" height="16" viewBox="0 0 16 16" fill="none" xmlns="http://www.w3.org/2000/svg">
<rect width="16" height="16" rx="8" fill="white"/>
<circle cx="4" cy="6" r="2" fill="black"/>
<circle cx="12" cy="6" r="2" fill="black"/>
</svg>
